MNIST_NETS/myProject1.sim/sim_1/behav/xsim/simulate.log
Time resolution is 1 ps
Configuration completed                      0 ns
Constructed filename:       test_data_0000.txt
1. Accuracy: 100.000000, Detected number: 7, Expected: 0007
Constructed filename:       test_data_0001.txt
2. Accuracy: 100.000000, Detected number: 2, Expected: 0002
Constructed filename:       test_data_0002.txt
3. Accuracy: 100.000000, Detected number: 1, Expected: 0001
Constructed filename:       test_data_0003.txt
4. Accuracy: 100.000000, Detected number: 0, Expected: 0000
Constructed filename:       test_data_0004.txt
5. Accuracy: 100.000000, Detected number: 4, Expected: 0004
Constructed filename:       test_data_0005.txt
6. Accuracy: 100.000000, Detected number: 1, Expected: 0001
Constructed filename:       test_data_0006.txt
7. Accuracy: 100.000000, Detected number: 4, Expected: 0004
Constructed filename:       test_data_0007.txt
8. Accuracy: 100.000000, Detected number: 9, Expected: 0009
Constructed filename:       test_data_0008.txt
9. Accuracy: 88.888889, Detected number: 6, Expected: 0005
Constructed filename:       test_data_0009.txt
10. Accuracy: 90.000000, Detected number: 9, Expected: 0009
Constructed filename:       test_data_0010.txt
11. Accuracy: 90.909091, Detected number: 0, Expected: 0000
Constructed filename:       test_data_0011.txt
12. Accuracy: 91.666667, Detected number: 6, Expected: 0006
Constructed filename:       test_data_0012.txt
13. Accuracy: 92.307692, Detected number: 9, Expected: 0009
Constructed filename:       test_data_0013.txt
14. Accuracy: 92.857143, Detected number: 0, Expected: 0000
Constructed filename:       test_data_0014.txt
15. Accuracy: 86.666667, Detected number: 8, Expected: 0001
Constructed filename:       test_data_0015.txt
16. Accuracy: 87.500000, Detected number: 5, Expected: 0005
Constructed filename:       test_data_0016.txt
17. Accuracy: 88.235294, Detected number: 9, Expected: 0009
Constructed filename:       test_data_0017.txt
18. Accuracy: 88.888889, Detected number: 7, Expected: 0007
Constructed filename:       test_data_0018.txt
19. Accuracy: 89.473684, Detected number: 3, Expected: 0003
Constructed filename:       test_data_0019.txt
20. Accuracy: 90.000000, Detected number: 4, Expected: 0004
Constructed filename:       test_data_0020.txt
21. Accuracy: 90.476190, Detected number: 9, Expected: 0009
Constructed filename:       test_data_0021.txt
22. Accuracy: 90.909091, Detected number: 6, Expected: 0006
Constructed filename:       test_data_0022.txt
23. Accuracy: 91.304348, Detected number: 6, Expected: 0006
Constructed filename:       test_data_0023.txt
24. Accuracy: 91.666667, Detected number: 5, Expected: 0005
Constructed filename:       test_data_0024.txt
25. Accuracy: 92.000000, Detected number: 4, Expected: 0004
Constructed filename:       test_data_0025.txt
26. Accuracy: 92.307692, Detected number: 0, Expected: 0000
Constructed filename:       test_data_0026.txt
27. Accuracy: 92.592593, Detected number: 7, Expected: 0007
Constructed filename:       test_data_0027.txt
28. Accuracy: 92.857143, Detected number: 4, Expected: 0004
Constructed filename:       test_data_0028.txt
29. Accuracy: 93.103448, Detected number: 0, Expected: 0000
Constructed filename:       test_data_0029.txt
30. Accuracy: 93.333333, Detected number: 1, Expected: 0001
Constructed filename:       test_data_0030.txt
31. Accuracy: 93.548387, Detected number: 3, Expected: 0003
Constructed filename:       test_data_0031.txt
32. Accuracy: 93.750000, Detected number: 1, Expected: 0001
Constructed filename:       test_data_0032.txt
33. Accuracy: 93.939394, Detected number: 3, Expected: 0003
Constructed filename:       test_data_0033.txt
34. Accuracy: 94.117647, Detected number: 4, Expected: 0004
Constructed filename:       test_data_0034.txt
35. Accuracy: 94.285714, Detected number: 7, Expected: 0007
Constructed filename:       test_data_0035.txt
36. Accuracy: 94.444444, Detected number: 2, Expected: 0002
Constructed filename:       test_data_0036.txt
37. Accuracy: 94.594595, Detected number: 7, Expected: 0007
Constructed filename:       test_data_0037.txt
38. Accuracy: 94.736842, Detected number: 1, Expected: 0001
Constructed filename:       test_data_0038.txt
39. Accuracy: 94.871795, Detected number: 2, Expected: 0002
Constructed filename:       test_data_0039.txt
40. Accuracy: 92.500000, Detected number: 8, Expected: 0001
Constructed filename:       test_data_0040.txt
41. Accuracy: 92.682927, Detected number: 1, Expected: 0001
Constructed filename:       test_data_0041.txt
42. Accuracy: 92.857143, Detected number: 7, Expected: 0007
Constructed filename:       test_data_0042.txt
43. Accuracy: 93.023256, Detected number: 4, Expected: 0004
Constructed filename:       test_data_0043.txt
44. Accuracy: 93.181818, Detected number: 2, Expected: 0002
Constructed filename:       test_data_0044.txt
45. Accuracy: 93.333333, Detected number: 3, Expected: 0003
Constructed filename:       test_data_0045.txt
46. Accuracy: 93.478261, Detected number: 5, Expected: 0005
Constructed filename:       test_data_0046.txt
47. Accuracy: 91.489362, Detected number: 3, Expected: 0001
Constructed filename:       test_data_0047.txt
48. Accuracy: 91.666667, Detected number: 2, Expected: 0002
Constructed filename:       test_data_0048.txt
49. Accuracy: 91.836735, Detected number: 4, Expected: 0004
Constructed filename:       test_data_0049.txt
50. Accuracy: 92.000000, Detected number: 4, Expected: 0004
Constructed filename:       test_data_0050.txt
51. Accuracy: 92.156863, Detected number: 6, Expected: 0006
Constructed filename:       test_data_0051.txt
52. Accuracy: 92.307692, Detected number: 3, Expected: 0003
Constructed filename:       test_data_0052.txt
53. Accuracy: 92.452830, Detected number: 5, Expected: 0005
Constructed filename:       test_data_0053.txt
54. Accuracy: 92.592593, Detected number: 5, Expected: 0005
Constructed filename:       test_data_0054.txt
55. Accuracy: 92.727273, Detected number: 6, Expected: 0006
Constructed filename:       test_data_0055.txt
56. Accuracy: 92.857143, Detected number: 0, Expected: 0000
Constructed filename:       test_data_0056.txt
57. Accuracy: 92.982456, Detected number: 4, Expected: 0004
Constructed filename:       test_data_0057.txt
58. Accuracy: 93.103448, Detected number: 1, Expected: 0001
Constructed filename:       test_data_0058.txt
59. Accuracy: 93.220339, Detected number: 9, Expected: 0009
Constructed filename:       test_data_0059.txt
60. Accuracy: 93.333333, Detected number: 5, Expected: 0005
Constructed filename:       test_data_0060.txt
61. Accuracy: 91.803279, Detected number: 9, Expected: 0007
Constructed filename:       test_data_0061.txt
62. Accuracy: 91.935484, Detected number: 8, Expected: 0008
Constructed filename:       test_data_0062.txt
63. Accuracy: 92.063492, Detected number: 9, Expected: 0009
Constructed filename:       test_data_0063.txt
64. Accuracy: 92.187500, Detected number: 3, Expected: 0003
Constructed filename:       test_data_0064.txt
65. Accuracy: 90.769231, Detected number: 3, Expected: 0007
Constructed filename:       test_data_0065.txt
66. Accuracy: 90.909091, Detected number: 4, Expected: 0004
Constructed filename:       test_data_0066.txt
67. Accuracy: 91.044776, Detected number: 6, Expected: 0006
Constructed filename:       test_data_0067.txt
68. Accuracy: 91.176471, Detected number: 4, Expected: 0004
Constructed filename:       test_data_0068.txt
69. Accuracy: 91.304348, Detected number: 3, Expected: 0003
Constructed filename:       test_data_0069.txt
70. Accuracy: 91.428571, Detected number: 0, Expected: 0000
Constructed filename:       test_data_0070.txt
71. Accuracy: 91.549296, Detected number: 7, Expected: 0007
Constructed filename:       test_data_0071.txt
72. Accuracy: 91.666667, Detected number: 0, Expected: 0000
Constructed filename:       test_data_0072.txt
73. Accuracy: 91.780822, Detected number: 2, Expected: 0002
Constructed filename:       test_data_0073.txt
74. Accuracy: 91.891892, Detected number: 9, Expected: 0009
Constructed filename:       test_data_0074.txt
75. Accuracy: 92.000000, Detected number: 1, Expected: 0001
Constructed filename:       test_data_0075.txt
76. Accuracy: 90.789474, Detected number: 9, Expected: 0007
Constructed filename:       test_data_0076.txt
77. Accuracy: 90.909091, Detected number: 3, Expected: 0003
Constructed filename:       test_data_0077.txt
78. Accuracy: 91.025641, Detected number: 2, Expected: 0002
Constructed filename:       test_data_0078.txt
79. Accuracy: 91.139241, Detected number: 9, Expected: 0009
Constructed filename:       test_data_0079.txt
80. Accuracy: 91.250000, Detected number: 7, Expected: 0007
Constructed filename:       test_data_0080.txt
81. Accuracy: 91.358025, Detected number: 7, Expected: 0007
Constructed filename:       test_data_0081.txt
82. Accuracy: 91.463415, Detected number: 6, Expected: 0006
Constructed filename:       test_data_0082.txt
83. Accuracy: 91.566265, Detected number: 2, Expected: 0002
Constructed filename:       test_data_0083.txt
84. Accuracy: 91.666667, Detected number: 7, Expected: 0007
Constructed filename:       test_data_0084.txt
85. Accuracy: 91.764706, Detected number: 8, Expected: 0008
Constructed filename:       test_data_0085.txt
86. Accuracy: 91.860465, Detected number: 4, Expected: 0004
Constructed filename:       test_data_0086.txt
87. Accuracy: 91.954023, Detected number: 7, Expected: 0007
Constructed filename:       test_data_0087.txt
88. Accuracy: 92.045455, Detected number: 3, Expected: 0003
Constructed filename:       test_data_0088.txt
89. Accuracy: 92.134831, Detected number: 6, Expected: 0006
Constructed filename:       test_data_0089.txt
90. Accuracy: 92.222222, Detected number: 1, Expected: 0001
Constructed filename:       test_data_0090.txt
91. Accuracy: 92.307692, Detected number: 3, Expected: 0003
Constructed filename:       test_data_0091.txt
92. Accuracy: 92.391304, Detected number: 6, Expected: 0006
Constructed filename:       test_data_0092.txt
93. Accuracy: 92.473118, Detected number: 9, Expected: 0009
Constructed filename:       test_data_0093.txt
94. Accuracy: 92.553191, Detected number: 3, Expected: 0003
Constructed filename:       test_data_0094.txt
95. Accuracy: 91.578947, Detected number: 8, Expected: 0001
Constructed filename:       test_data_0095.txt
96. Accuracy: 91.666667, Detected number: 4, Expected: 0004
Constructed filename:       test_data_0096.txt
97. Accuracy: 91.752577, Detected number: 1, Expected: 0001
Constructed filename:       test_data_0097.txt
98. Accuracy: 90.816327, Detected number: 9, Expected: 0007
Constructed filename:       test_data_0098.txt
99. Accuracy: 90.909091, Detected number: 6, Expected: 0006
Constructed filename:       test_data_0099.txt
100. Accuracy: 91.000000, Detected number: 9, Expected: 0009
Accuracy: 91.000000
$stop called at time : 900235 ns : File "C:/NeuralNetworks/neuralNetwork/verification_ph2/src/fpga/tb/top_sim.v" Line 388
INFO: xsimkernel Simulation Memory Usage: 18528 KB (Peak: 18528 KB), Simulation CPU Usage: 10062 ms
